%YAML 1.1
%TAG !u! tag:unity3d.com,2011:
--- !u!1045 &1
EditorBuildSettings:
  m_ObjectHideFlags: 0
  serializedVersion: 2
  m_Scenes:
  - enabled: 0
    path: Assets/Scenes/InGame.unity
    guid: 4c32204db586fbc4eacbc7af57dee3df
  - enabled: 1
    path: Assets/Scenes/InGame2v1.unity
    guid: 7dad0bf5283c97743a167a3dd675e7f7
